…
These used `ChainedVectors` to transparently represent the chunked columns:

```julia-repl
julia> Tables.getcolumn(jl_table, 1)
20-element SentinelArrays.ChainedVector{Int64, PyArray{Int64, 1, false, true, Int64}}:
 1
 ⋮
 4

julia> DataFrame(jl_table)
20×3 DataFrame
 Row │ f0     f1    f2
     │ Int64  Py    Py
─────┼────────────────────
   1 │     1  foo   True
   2 │     2  bar   None
   3 │     3  baz   False
  ⋮  │   ⋮     ⋮      ⋮
  19 │     3  baz   False
  20 │     4  None  True
           15 rows omitted
```
